<svg width="142" height="45" viewBox="0 0 142 45" fill="none" xmlns="http://www.w3.org/2000/svg">
<path d="M136.764 0H5.87451C2.98297 0 0.638916 2.51839 0.638916 5.62498V39.3748C0.638916 42.4814 2.98297 44.9998 5.87451 44.9998H136.764C139.656 44.9998 142 42.4814 142 39.3748V5.62498C142 2.51839 139.656 0 136.764 0Z" fill="black"/>
<path d="M136.764 0.899939C137.93 0.901386 139.048 1.39969 139.873 2.28554C140.697 3.17138 141.161 4.37242 141.162 5.62515V39.375C141.161 40.6278 140.697 41.8288 139.873 42.7146C139.048 43.6005 137.93 44.0988 136.764 44.1002H5.87451C4.70849 44.0988 3.59062 43.6005 2.76614 42.7147C1.94166 41.8288 1.4779 40.6278 1.47661 39.375V5.62515C1.47788 4.3724 1.94163 3.17135 2.76612 2.28551C3.5906 1.39966 4.70849 0.901362 5.87451 0.899939H136.764ZM136.764 0.000166893H5.87451C4.48719 0.00452974 3.15786 0.598561 2.17687 1.65251C1.19589 2.70645 0.642977 4.13465 0.638916 5.62515L0.638916 39.375C0.642977 40.8655 1.19589 42.2937 2.17687 43.3477C3.15786 44.4016 4.48719 44.9957 5.87451 45H136.764C138.152 44.9957 139.481 44.4016 140.462 43.3477C141.443 42.2937 141.996 40.8655 142 39.375V5.62515C141.996 4.13465 141.443 2.70645 140.462 1.65251C139.481 0.598561 138.152 0.00452974 136.764 0.000166893Z" fill="#A6A6A6"/>
<path d="M50.2916 11.5237C50.3107 11.9365 50.2513 12.3491 50.1171 12.7365C49.983 13.1239 49.7769 13.4779 49.5113 13.7769C49.2137 14.1085 48.8543 14.3689 48.4566 14.541C48.0589 14.7131 47.6318 14.793 47.2033 14.7756C46.7722 14.7797 46.3446 14.6912 45.9457 14.5153C45.5468 14.3393 45.1846 14.0795 44.8805 13.7511C44.5764 13.4226 44.3365 13.0322 44.1749 12.6027C44.0133 12.1732 43.9332 11.7133 43.9394 11.2501C43.9332 10.7868 44.0134 10.327 44.175 9.89746C44.3366 9.46796 44.5765 9.0775 44.8806 8.74901C45.1847 8.42052 45.5468 8.16063 45.9457 7.98461C46.3446 7.80859 46.7722 7.71999 47.2033 7.72401C47.6467 7.72257 48.0856 7.81887 48.4929 8.00694C48.8712 8.17169 49.2079 8.4301 49.4756 8.76114L48.9234 9.35491C48.7129 9.08879 48.4484 8.87818 48.1501 8.73932C47.8519 8.60046 47.528 8.53706 47.2033 8.55403C46.8766 8.55221 46.5528 8.62127 46.2514 8.75707C45.9501 8.89287 45.6773 9.09262 45.4495 9.34434C45.2217 9.59607 45.0436 9.89461 44.9257 10.2221C44.8078 10.5495 44.7527 10.8992 44.7635 11.2501C44.7558 11.7757 44.8934 12.2919 45.1591 12.7333C45.4247 13.1748 45.8064 13.5215 46.2557 13.7296C46.705 13.9376 47.2017 13.9977 47.6829 13.902C48.164 13.8064 48.6078 13.5595 48.9581 13.1925C49.2805 12.8193 49.4674 12.334 49.4847 11.8252H47.2033V11.0144H50.2477C50.2764 11.1824 50.2912 11.3528 50.2916 11.5237Z" fill="white" stroke="white" stroke-width="0.2" stroke-miterlimit="10"/>
<path d="M55.1181 8.70455H52.2569V10.8446H54.837V11.6555H52.2569V13.7956H55.1181V14.6251H51.4501V7.87509H55.1181V8.70455Z" fill="white" stroke="white" stroke-width="0.2" stroke-miterlimit="10"/>
<path d="M58.5223 14.6251H57.7144V8.70455H55.9597V7.87509H60.277V8.70455H58.5223V14.6251Z" fill="white" stroke="white" stroke-width="0.2" stroke-miterlimit="10"/>
<path d="M63.4011 14.6251V7.87509H64.2078V14.6251H63.4011Z" fill="white" stroke="white" stroke-width="0.2" stroke-miterlimit="10"/>
<path d="M67.7889 14.6251H66.981V8.70455H65.2264V7.87509H69.5436V8.70455H67.7889V14.6251Z" fill="white" stroke="white" stroke-width="0.2" stroke-miterlimit="10"/>
<path d="M77.7166 13.7527C77.1051 14.4078 76.2768 14.7756 75.4133 14.7756C74.5497 14.7756 73.7214 14.4078 73.1099 13.7527C72.8074 13.4235 72.5696 13.0323 72.4106 12.6024C72.2516 12.1725 72.1747 11.7126 72.1845 11.2501C72.1747 10.7876 72.2516 10.3277 72.4106 9.89774C72.5696 9.46781 72.8074 9.07661 73.1099 8.74741C73.4122 8.42258 73.7711 8.16499 74.1661 7.98938C74.5612 7.81377 74.9846 7.72359 75.4121 7.724C75.8396 7.72441 76.2628 7.8154 76.6576 7.99176C77.0523 8.16812 77.4108 8.42639 77.7125 8.75179C78.0153 9.08013 78.2535 9.47045 78.4132 9.8996C78.5729 10.3288 78.6507 10.788 78.642 11.2501C78.6515 11.7125 78.5745 12.1723 78.4156 12.6022C78.2566 13.0321 78.0189 13.4234 77.7166 13.7527ZM73.706 13.1875C74.1589 13.6733 74.7728 13.9461 75.4127 13.9461C76.0527 13.9461 76.6665 13.6733 77.1194 13.1875C77.3517 12.9321 77.5333 12.6287 77.6534 12.2957C77.7734 11.9627 77.8294 11.607 77.8179 11.2501C77.8294 10.8932 77.7734 10.5375 77.6534 10.2045C77.5333 9.87147 77.3517 9.56807 77.1194 9.3126C76.6665 8.82684 76.0527 8.55401 75.4127 8.55401C74.7728 8.55401 74.1589 8.82684 73.706 9.3126C73.4741 9.56827 73.2928 9.87173 73.1729 10.2047C73.0531 10.5377 72.9972 10.8933 73.0087 11.2501C72.9972 11.6069 73.0531 11.9625 73.1729 12.2954C73.2928 12.6284 73.4741 12.9319 73.706 13.1875Z" fill="white" stroke="white" stroke-width="0.2" stroke-miterlimit="10"/>
<path d="M79.7751 14.6251V7.87509H80.7578L83.8112 13.126H83.8459L83.8112 11.8252V7.87509H84.619V14.6251H83.7764L80.5819 9.11979H80.5471L80.5819 10.4206V14.6251H79.7751Z" fill="white" stroke="white" stroke-width="0.2" stroke-miterlimit="10"/>
<path d="M71.9852 24.4706C71.1051 24.4742 70.2457 24.7578 69.5155 25.2858C68.7853 25.8137 68.2171 26.5623 67.8826 27.4369C67.5481 28.3115 67.4624 29.273 67.6361 30.2C67.8099 31.1269 68.2354 31.9778 68.8589 32.6452C69.4824 33.3125 70.276 33.7664 71.1394 33.9496C72.0029 34.1327 72.8975 34.0369 73.7103 33.6742C74.5231 33.3115 75.2177 32.6982 75.7063 31.9117C76.1949 31.1253 76.4556 30.2009 76.4556 29.2553C76.4643 28.6229 76.3544 27.995 76.1326 27.4091C75.9108 26.8232 75.5816 26.2912 75.1645 25.8448C74.7474 25.3984 74.251 25.0467 73.7048 24.8106C73.1586 24.5745 72.5738 24.4589 71.9852 24.4706ZM71.9852 32.1552C71.4432 32.1967 70.9021 32.062 70.4323 31.7685C69.9626 31.475 69.586 31.0363 69.3516 30.5097C69.1171 29.983 69.0357 29.3927 69.1179 28.8156C69.2001 28.2385 69.4421 27.7014 69.8124 27.2741C70.1827 26.8469 70.6642 26.5493 71.1941 26.4202C71.7241 26.291 72.2779 26.3363 72.7836 26.5501C73.2892 26.7638 73.7232 27.1362 74.0291 27.6187C74.3351 28.1012 74.4987 28.6715 74.4987 29.2553C74.5151 29.6241 74.4627 29.9928 74.3446 30.3395C74.2264 30.6862 74.0449 31.0041 73.8107 31.2743C73.5764 31.5445 73.2943 31.7617 72.9808 31.9129C72.6673 32.0642 72.3288 32.1466 71.9852 32.1552ZM62.2329 24.4706C61.3528 24.4742 60.4934 24.7578 59.7632 25.2857C59.033 25.8137 58.4648 26.5622 58.1303 27.4368C57.7958 28.3114 57.71 29.2729 57.8838 30.1999C58.0575 31.1269 58.483 31.9778 59.1065 32.6451C59.73 33.3125 60.5236 33.7664 61.3871 33.9496C62.2505 34.1327 63.1451 34.0369 63.9579 33.6742C64.7707 33.3115 65.4653 32.6982 65.9539 31.9118C66.4425 31.1253 66.7033 30.2009 66.7033 29.2553C66.7119 28.6229 66.6021 27.995 66.3803 27.4091C66.1585 26.8232 65.8292 26.2912 65.4122 25.8448C64.9951 25.3984 64.4987 25.0467 63.9525 24.8106C63.4063 24.5746 62.8215 24.4589 62.2329 24.4706ZM62.2329 32.1552C61.6909 32.1967 61.1498 32.062 60.6801 31.7685C60.2104 31.475 59.8338 31.0363 59.5993 30.5097C59.3649 29.983 59.2835 29.3927 59.3657 28.8156C59.4479 28.2385 59.6899 27.7014 60.0602 27.2741C60.4305 26.8469 60.912 26.5493 61.4419 26.4202C61.9718 26.291 62.5257 26.3363 63.0313 26.5501C63.537 26.7638 63.971 27.1362 64.2769 27.6187C64.5828 28.1012 64.7464 28.6715 64.7464 29.2553C64.7629 29.6241 64.7105 29.9928 64.5923 30.3395C64.4742 30.6862 64.2927 31.0041 64.0584 31.2743C63.8242 31.5445 63.5421 31.7617 63.2285 31.913C62.915 32.0642 62.5765 32.1466 62.2329 32.1552ZM50.6321 25.9387V27.9685H55.1532C55.088 28.9206 54.7254 29.8211 54.1241 30.5241C53.6711 31.0202 53.1262 31.4088 52.5247 31.6648C51.9233 31.9208 51.2785 32.0384 50.6321 32.0102C49.3106 31.991 48.0493 31.4135 47.1211 30.4027C46.193 29.3919 45.6726 28.0291 45.6726 26.6092C45.6726 25.1893 46.193 23.8265 47.1211 22.8157C48.0493 21.8049 49.3106 21.2274 50.6321 21.2082C51.9014 21.1904 53.126 21.7114 54.0398 22.6581L55.3725 21.2263C54.749 20.5632 54.0086 20.0404 53.1945 19.6887C52.3805 19.337 51.5094 19.1635 50.6321 19.1783C49.7153 19.1639 48.8051 19.3455 47.9542 19.7125C47.1034 20.0796 46.3289 20.6246 45.6759 21.3161C45.0229 22.0075 44.5043 22.8315 44.1504 23.7402C43.7964 24.6489 43.6141 25.6242 43.6141 26.6092C43.6141 27.5943 43.7964 28.5695 44.1504 29.4782C44.5043 30.3869 45.0229 31.2109 45.6759 31.9023C46.3289 32.5938 47.1034 33.1389 47.9542 33.5059C48.8051 33.8729 49.7153 34.0545 50.6321 34.0401C51.5279 34.0801 52.4213 33.9149 53.2531 33.5555C54.0849 33.1962 54.8361 32.6509 55.4568 31.9559C56.5588 30.6635 57.1462 28.9591 57.0932 27.2074C57.0976 26.782 57.0636 26.3571 56.9919 25.9387H50.6321ZM98.0753 27.5154C97.8077 26.6487 97.2982 25.8916 96.6161 25.3469C95.934 24.8021 95.1123 24.4962 94.2627 24.4706C93.6905 24.4744 93.125 24.6028 92.6003 24.8481C92.0756 25.0934 91.6026 25.4505 91.21 25.8977C90.8174 26.345 90.5132 26.8731 90.316 27.4502C90.1187 28.0273 90.0324 28.6414 90.0623 29.2553C90.0494 29.8844 90.1547 30.5098 90.3718 31.0942C90.5889 31.6786 90.9134 32.21 91.326 32.6566C91.7385 33.1032 92.2307 33.4559 92.7729 33.6936C93.3152 33.9314 93.8965 34.0492 94.4821 34.0401C95.2158 34.0445 95.9389 33.853 96.5867 33.4829C97.2345 33.1128 97.7865 32.5756 98.1933 31.9196L96.6751 30.8322C96.4476 31.238 96.1259 31.5734 95.7414 31.8053C95.357 32.0372 94.923 32.1578 94.4821 32.1552C94.0284 32.1739 93.5799 32.0456 93.1949 31.7871C92.8098 31.5285 92.506 31.1516 92.3227 30.7053L98.2778 28.0592L98.0753 27.5154ZM92.0023 29.1104C91.9813 28.7622 92.0252 28.4129 92.1314 28.0831C92.2376 27.7533 92.4039 27.4496 92.6207 27.1897C92.8375 26.9297 93.1003 26.7189 93.3938 26.5695C93.6873 26.42 94.0057 26.335 94.3302 26.3193C94.6681 26.2954 95.005 26.3789 95.299 26.5594C95.593 26.7399 95.8311 27.0094 95.9835 27.3343L92.0023 29.1104ZM87.1607 33.7501H89.1175V19.6859H87.1607V33.7501ZM83.9554 25.5399H83.888C83.5905 25.1926 83.2274 24.9176 82.823 24.7332C82.4186 24.5488 81.9822 24.4593 81.5431 24.4706C80.3947 24.5231 79.3096 25.0502 78.5143 25.9417C77.719 26.8333 77.275 28.0205 77.275 29.2554C77.275 30.4903 77.719 31.6774 78.5143 32.569C79.3096 33.4606 80.3947 33.9876 81.5431 34.0401C81.984 34.0527 82.4222 33.962 82.8271 33.7742C83.2321 33.5864 83.5941 33.3061 83.888 32.9527H83.9554V33.6414C83.9554 35.472 83.0445 36.4507 81.5768 36.4507C81.0876 36.4381 80.613 36.2693 80.2135 35.9659C79.8139 35.6625 79.5075 35.2382 79.3332 34.747L77.6293 35.5083C77.9505 36.3483 78.4977 37.0661 79.201 37.5698C79.9043 38.0736 80.7316 38.3402 81.5768 38.3356C83.8711 38.3356 85.8111 36.8857 85.8111 33.3514V24.7605H83.9554V25.5399ZM81.7119 32.1552C81.0355 32.0936 80.4053 31.7614 79.946 31.2244C79.4868 30.6874 79.2319 29.9847 79.2319 29.2554C79.2319 28.5261 79.4868 27.8234 79.946 27.2864C80.4053 26.7493 81.0355 26.4171 81.7119 26.3555C82.0484 26.3732 82.3781 26.4634 82.6814 26.6209C82.9848 26.7784 83.2555 26.9999 83.4775 27.2722C83.6994 27.5445 83.8681 27.862 83.9734 28.2058C84.0787 28.5497 84.1185 28.9127 84.0904 29.2734C84.1167 29.6319 84.0755 29.9924 83.9691 30.3333C83.8627 30.6742 83.6935 30.9886 83.4714 31.2577C83.2494 31.5267 82.9791 31.7448 82.6768 31.8991C82.3744 32.0533 82.0463 32.1404 81.7119 32.1552ZM107.242 19.6861H102.56V33.7501H104.513V28.4217H107.242C107.794 28.4542 108.347 28.3654 108.867 28.1606C109.386 27.9558 109.862 27.6393 110.264 27.2306C110.666 26.8218 110.986 26.3292 111.204 25.7831C111.423 25.2369 111.536 24.6485 111.536 24.0539C111.536 23.4593 111.423 22.8709 111.204 22.3247C110.986 21.7785 110.666 21.286 110.264 20.8772C109.862 20.4684 109.386 20.152 108.867 19.9472C108.347 19.7424 107.794 19.6535 107.242 19.6861ZM107.292 26.4644H104.513V21.6435H107.292C107.591 21.6368 107.887 21.6943 108.165 21.8124C108.443 21.9306 108.696 22.1071 108.909 22.3316C109.122 22.556 109.292 22.824 109.407 23.1198C109.523 23.4155 109.583 23.7331 109.583 24.0539C109.583 24.3748 109.523 24.6924 109.407 24.9881C109.292 25.2839 109.122 25.5519 108.909 25.7763C108.696 26.0008 108.443 26.1773 108.165 26.2955C107.887 26.4136 107.591 26.4711 107.292 26.4644ZM119.367 24.4447C118.654 24.4 117.944 24.5799 117.325 24.9624C116.706 25.3449 116.204 25.9133 115.881 26.5978L117.616 27.3759C117.788 27.0361 118.048 26.7576 118.365 26.5744C118.682 26.3912 119.042 26.3113 119.401 26.3445C119.896 26.2925 120.391 26.4538 120.776 26.7929C121.161 27.1321 121.406 27.6215 121.455 28.1538V28.2986C120.828 27.9405 120.128 27.7541 119.418 27.7558C117.548 27.7558 115.645 28.8595 115.645 30.9222C115.663 31.3569 115.763 31.7833 115.937 32.176C116.112 32.5687 116.358 32.9198 116.661 33.2083C116.964 33.4969 117.318 33.7171 117.702 33.8559C118.086 33.9947 118.492 34.0492 118.896 34.0162C119.388 34.0473 119.878 33.9361 120.317 33.6943C120.755 33.4525 121.125 33.0888 121.388 32.6411H121.455V33.7267H123.342V28.3348C123.342 25.8379 121.607 24.4447 119.367 24.4447ZM119.131 32.1525C118.491 32.1525 117.599 31.8088 117.599 30.9583C117.599 29.8728 118.71 29.4566 119.67 29.4566C120.294 29.4387 120.91 29.6012 121.455 29.927C121.384 30.5371 121.109 31.0985 120.682 31.5076C120.254 31.9168 119.704 32.1458 119.131 32.1525ZM130.213 24.7523L127.973 30.8498H127.906L125.582 24.7523H123.476L126.962 33.2744L124.975 38.0149H127.013L132.385 24.7523H130.213ZM112.614 33.7501H114.567V19.6861H112.614V33.7501Z" fill="white"/>
<path d="M11.5659 8.48033C11.2225 8.92141 11.0491 9.48686 11.0813 10.0608V34.9413C11.049 35.5153 11.2224 36.0808 11.5659 36.5219L11.6434 36.603L24.6162 22.6655V22.3367L11.6434 8.39865L11.5659 8.48033Z" fill="url(#paint0_linear_123_641)"/>
<path d="M28.9402 27.3133L24.6162 22.6655V22.3367L28.9412 17.69L29.0387 17.7497L34.162 20.8773C35.6254 21.7706 35.6254 23.2322 34.162 24.126L29.0387 27.2536L28.9402 27.3133Z" fill="url(#paint1_linear_123_641)"/>
<path d="M29.0386 27.253L24.6161 22.5012L11.5659 36.5219C11.864 36.8044 12.2448 36.966 12.6423 36.9786C13.0397 36.9912 13.4287 36.8541 13.7419 36.591L29.0386 27.253Z" fill="url(#paint2_linear_123_641)"/>
<path d="M29.0386 17.7492L13.7419 8.41127C13.4287 8.14812 13.0397 8.01098 12.6423 8.0236C12.2448 8.03621 11.864 8.19779 11.5659 8.48034L24.6161 22.5012L29.0386 17.7492Z" fill="url(#paint3_linear_123_641)"/>
<path opacity="0.2" d="M28.9411 27.1484L13.7419 36.4266C13.4407 36.6729 13.0732 36.8073 12.6947 36.8094C12.3163 36.8116 11.9474 36.6815 11.6439 36.4386L11.5659 36.5224L11.6433 36.6035L11.6439 36.603C11.9474 36.8459 12.3163 36.9762 12.6947 36.974C13.0732 36.9718 13.4408 36.8374 13.7419 36.5909L29.0386 27.253L28.9411 27.1484Z" fill="black"/>
<path opacity="0.12" d="M11.5659 36.3581C11.2226 35.917 11.0492 35.3515 11.0813 34.7776V34.9419C11.0492 35.5159 11.2226 36.0813 11.5659 36.5224L11.6439 36.4386L11.5659 36.3581Z" fill="black"/>
<path opacity="0.12" d="M34.162 23.961L28.9412 27.1484L29.0387 27.253L34.162 24.1254C34.4634 23.9849 34.7242 23.7601 34.9172 23.4745C35.1103 23.1889 35.2286 22.853 35.2597 22.5016C35.1949 22.8198 35.062 23.1174 34.8714 23.3707C34.6809 23.6241 34.438 23.8262 34.162 23.961Z" fill="black"/>
<path opacity="0.25" d="M13.7419 8.57617L34.162 21.0411C34.4381 21.176 34.6811 21.3782 34.8716 21.6316C35.0622 21.8851 35.1951 22.1828 35.2597 22.5012C35.2288 22.1496 35.1106 21.8135 34.9175 21.5278C34.7244 21.242 34.4635 21.0172 34.162 20.8768L13.7419 8.41181C12.2785 7.51845 11.0813 8.26049 11.0813 10.0614V10.2258C11.0813 8.42497 12.2785 7.68292 13.7419 8.57617Z" fill="white"/>
<defs>
<linearGradient id="paint0_linear_123_641" x1="23.4658" y1="9.79849" x2="4.6341" y2="27.3267" gradientUnits="userSpaceOnUse">
<stop stop-color="#00A0FF"/>
<stop offset="0.00657" stop-color="#00A1FF"/>
<stop offset="0.2601" stop-color="#00BEFF"/>
<stop offset="0.5122" stop-color="#00D2FF"/>
<stop offset="0.7604" stop-color="#00DFFF"/>
<stop offset="1" stop-color="#00E3FF"/>
</linearGradient>
<linearGradient id="paint1_linear_123_641" x1="36.0674" y1="22.5017" x2="10.7305" y2="22.5017" gradientUnits="userSpaceOnUse">
<stop stop-color="#FFE000"/>
<stop offset="0.4087" stop-color="#FFBD00"/>
<stop offset="0.7754" stop-color="#FFA500"/>
<stop offset="1" stop-color="#FF9C00"/>
</linearGradient>
<linearGradient id="paint2_linear_123_641" x1="26.6355" y1="25.0831" x2="1.09829" y2="48.8526" gradientUnits="userSpaceOnUse">
<stop stop-color="#FF3A44"/>
<stop offset="1" stop-color="#C31162"/>
</linearGradient>
<linearGradient id="paint3_linear_123_641" x1="8.27992" y1="0.19833" x2="19.6834" y2="10.8124" gradientUnits="userSpaceOnUse">
<stop stop-color="#32A071"/>
<stop offset="0.0685" stop-color="#2DA771"/>
<stop offset="0.4762" stop-color="#15CF74"/>
<stop offset="0.8009" stop-color="#06E775"/>
<stop offset="1" stop-color="#00F076"/>
</linearGradient>
</defs>
</svg>
