<svg width="89" height="48" viewBox="0 0 89 48" fill="none" xmlns="http://www.w3.org/2000/svg">
<path d="M0 0H84C86.7614 0 89 2.23858 89 5V43C89 45.7614 86.7614 48 84 48H0V0Z" fill="#18191F"/>
<path d="M31.6662 18.8182H33.2074V25.5149C33.2074 26.2275 33.04 26.8589 32.7053 27.4091C32.3705 27.956 31.8999 28.3868 31.2933 28.7017C30.6868 29.0133 29.9759 29.169 29.1605 29.169C28.3485 29.169 27.6392 29.0133 27.0327 28.7017C26.4261 28.3868 25.9555 27.956 25.6207 27.4091C25.286 26.8589 25.1186 26.2275 25.1186 25.5149V18.8182H26.6548V25.3906C26.6548 25.8513 26.7559 26.2607 26.9581 26.6186C27.1636 26.9766 27.4536 27.2583 27.8281 27.4638C28.2027 27.666 28.6468 27.767 29.1605 27.767C29.6776 27.767 30.1233 27.666 30.4979 27.4638C30.8757 27.2583 31.1641 26.9766 31.3629 26.6186C31.5651 26.2607 31.6662 25.8513 31.6662 25.3906V18.8182ZM36.8081 24.4659V29H35.3216V21.3636H36.7484V22.6065H36.8429C37.0185 22.2022 37.2936 21.8774 37.6681 21.6321C38.046 21.3868 38.5216 21.2642 39.095 21.2642C39.6154 21.2642 40.0711 21.3736 40.4622 21.5923C40.8533 21.8078 41.1565 22.1293 41.372 22.5568C41.5874 22.9844 41.6951 23.513 41.6951 24.1428V29H40.2086V24.3217C40.2086 23.7682 40.0645 23.3357 39.7761 23.0241C39.4877 22.7093 39.0917 22.5518 38.5879 22.5518C38.2432 22.5518 37.9366 22.6264 37.6681 22.7756C37.403 22.9247 37.1925 23.1435 37.0368 23.4318C36.8843 23.7169 36.8081 24.0616 36.8081 24.4659ZM46.9799 29.1541C46.2276 29.1541 45.5796 28.9934 45.036 28.6719C44.4958 28.3471 44.0782 27.8913 43.7832 27.3047C43.4915 26.7147 43.3457 26.0237 43.3457 25.2315C43.3457 24.4493 43.4915 23.7599 43.7832 23.1634C44.0782 22.5668 44.4892 22.1011 45.0162 21.7663C45.5465 21.4316 46.1663 21.2642 46.8755 21.2642C47.3064 21.2642 47.724 21.3355 48.1284 21.478C48.5327 21.6205 48.8957 21.8442 49.2172 22.1491C49.5386 22.4541 49.7922 22.8501 49.9778 23.3374C50.1634 23.8213 50.2562 24.4096 50.2562 25.1023V25.6293H44.1859V24.5156H48.7995C48.7995 24.1245 48.72 23.7782 48.5609 23.4766C48.4018 23.1716 48.1781 22.9313 47.8897 22.7557C47.6047 22.58 47.2699 22.4922 46.8855 22.4922C46.4679 22.4922 46.1033 22.5949 45.7917 22.8004C45.4835 23.0026 45.2449 23.2678 45.0758 23.5959C44.9101 23.9207 44.8272 24.2737 44.8272 24.6548V25.5249C44.8272 26.0353 44.9167 26.4695 45.0957 26.8274C45.278 27.1854 45.5315 27.4588 45.8564 27.6477C46.1812 27.8333 46.5607 27.9261 46.9949 27.9261C47.2766 27.9261 47.5334 27.8864 47.7654 27.8068C47.9975 27.724 48.198 27.6013 48.367 27.4389C48.536 27.2765 48.6653 27.076 48.7548 26.8374L50.1618 27.0909C50.0491 27.5052 49.8469 27.8681 49.5552 28.1797C49.2669 28.4879 48.9039 28.7282 48.4664 28.9006C48.0323 29.0696 47.5368 29.1541 46.9799 29.1541ZM55.4702 21.3636V22.5568H51.299V21.3636H55.4702ZM52.4176 19.5341H53.9041V26.7578C53.9041 27.0462 53.9472 27.2633 54.0334 27.4091C54.1196 27.5516 54.2306 27.6494 54.3665 27.7024C54.5057 27.7521 54.6565 27.777 54.8189 27.777C54.9382 27.777 55.0426 27.7687 55.1321 27.7521C55.2216 27.7356 55.2912 27.7223 55.3409 27.7124L55.6094 28.9403C55.5232 28.9735 55.4006 29.0066 55.2415 29.0398C55.0824 29.0762 54.8835 29.0961 54.6449 29.0994C54.2538 29.1061 53.8892 29.0365 53.5511 28.8906C53.2131 28.7448 52.9396 28.5194 52.7308 28.2145C52.522 27.9096 52.4176 27.5268 52.4176 27.0661V19.5341ZM60.3237 29.1541C59.5713 29.1541 58.9234 28.9934 58.3798 28.6719C57.8395 28.3471 57.4219 27.8913 57.127 27.3047C56.8353 26.7147 56.6895 26.0237 56.6895 25.2315C56.6895 24.4493 56.8353 23.7599 57.127 23.1634C57.4219 22.5668 57.8329 22.1011 58.3599 21.7663C58.8902 21.4316 59.51 21.2642 60.2193 21.2642C60.6502 21.2642 61.0678 21.3355 61.4721 21.478C61.8765 21.6205 62.2394 21.8442 62.5609 22.1491C62.8824 22.4541 63.1359 22.8501 63.3216 23.3374C63.5072 23.8213 63.6 24.4096 63.6 25.1023V25.6293H57.5297V24.5156H62.1433C62.1433 24.1245 62.0637 23.7782 61.9047 23.4766C61.7456 23.1716 61.5218 22.9313 61.2335 22.7557C60.9484 22.58 60.6137 22.4922 60.2292 22.4922C59.8116 22.4922 59.447 22.5949 59.1355 22.8004C58.8272 23.0026 58.5886 23.2678 58.4196 23.5959C58.2538 23.9207 58.171 24.2737 58.171 24.6548V25.5249C58.171 26.0353 58.2605 26.4695 58.4395 26.8274C58.6217 27.1854 58.8753 27.4588 59.2001 27.6477C59.5249 27.8333 59.9044 27.9261 60.3386 27.9261C60.6203 27.9261 60.8772 27.8864 61.1092 27.8068C61.3412 27.724 61.5417 27.6013 61.7108 27.4389C61.8798 27.2765 62.0091 27.076 62.0985 26.8374L63.5055 27.0909C63.3928 27.5052 63.1906 27.8681 62.899 28.1797C62.6106 28.4879 62.2477 28.7282 61.8102 28.9006C61.376 29.0696 60.8805 29.1541 60.3237 29.1541Z" fill="white"/>
</svg>
