<svg width="248" height="52" viewBox="0 0 248 52" fill="none" xmlns="http://www.w3.org/2000/svg">
<path d="M0 5C0 2.23858 2.23858 0 5 0H248V52H5C2.23857 52 0 49.7614 0 47V5Z" fill="#F4F5F7"/>
<path d="M16.6761 21.9119V20.8182H24.3125V21.9119H21.1108V31H19.8778V21.9119H16.6761ZM29.8297 27.8778V23.3636H31.003V31H29.8297V29.7074H29.7502C29.5712 30.0952 29.2928 30.425 28.915 30.6967C28.5371 30.9652 28.0598 31.0994 27.4831 31.0994C27.0059 31.0994 26.5816 30.995 26.2104 30.7862C25.8392 30.5741 25.5475 30.2559 25.3354 29.8317C25.1233 29.4041 25.0172 28.8655 25.0172 28.2159V23.3636H26.1905V28.1364C26.1905 28.6932 26.3463 29.1373 26.6578 29.4688C26.9727 29.8002 27.3738 29.9659 27.861 29.9659C28.1526 29.9659 28.4493 29.8913 28.7509 29.7422C29.0558 29.593 29.311 29.3643 29.5165 29.0561C29.7253 28.7479 29.8297 28.3551 29.8297 27.8778ZM40.1918 31.1591C39.4759 31.1591 38.8594 30.9901 38.3423 30.652C37.8253 30.3139 37.4276 29.8482 37.1491 29.255C36.8707 28.6617 36.7315 27.9839 36.7315 27.2216C36.7315 26.446 36.8741 25.7616 37.1591 25.1683C37.4474 24.5717 37.8485 24.1061 38.3622 23.7713C38.8793 23.4332 39.4825 23.2642 40.1719 23.2642C40.7088 23.2642 41.1927 23.3636 41.6236 23.5625C42.0545 23.7614 42.4074 24.0398 42.6825 24.3977C42.9576 24.7557 43.1283 25.1733 43.1946 25.6506H42.0213C41.9318 25.3026 41.733 24.9943 41.4247 24.7259C41.1198 24.4541 40.7088 24.3182 40.1918 24.3182C39.7344 24.3182 39.3333 24.4375 38.9886 24.6761C38.6473 24.9115 38.3804 25.2446 38.1882 25.6754C37.9993 26.103 37.9048 26.6051 37.9048 27.1818C37.9048 27.7718 37.9976 28.2855 38.1832 28.723C38.3722 29.1605 38.6373 29.5002 38.9787 29.7422C39.3234 29.9841 39.7277 30.1051 40.1918 30.1051C40.4967 30.1051 40.7734 30.0521 41.022 29.946C41.2706 29.84 41.4811 29.6875 41.6534 29.4886C41.8258 29.2898 41.9484 29.0511 42.0213 28.7727H43.1946C43.1283 29.2235 42.9643 29.6295 42.7024 29.9908C42.4439 30.3487 42.1009 30.6338 41.6733 30.8459C41.2491 31.0547 40.7552 31.1591 40.1918 31.1591ZM48.0121 31.1591C47.3227 31.1591 46.7178 30.995 46.1974 30.6669C45.6804 30.3388 45.276 29.8797 44.9844 29.2898C44.696 28.6998 44.5518 28.0104 44.5518 27.2216C44.5518 26.4261 44.696 25.7318 44.9844 25.1385C45.276 24.5452 45.6804 24.0845 46.1974 23.7564C46.7178 23.4283 47.3227 23.2642 48.0121 23.2642C48.7015 23.2642 49.3047 23.4283 49.8217 23.7564C50.3421 24.0845 50.7464 24.5452 51.0348 25.1385C51.3265 25.7318 51.4723 26.4261 51.4723 27.2216C51.4723 28.0104 51.3265 28.6998 51.0348 29.2898C50.7464 29.8797 50.3421 30.3388 49.8217 30.6669C49.3047 30.995 48.7015 31.1591 48.0121 31.1591ZM48.0121 30.1051C48.5357 30.1051 48.9666 29.9709 49.3047 29.7024C49.6428 29.4339 49.893 29.081 50.0554 28.6435C50.2178 28.206 50.299 27.732 50.299 27.2216C50.299 26.7112 50.2178 26.2356 50.0554 25.7947C49.893 25.3539 49.6428 24.9976 49.3047 24.7259C48.9666 24.4541 48.5357 24.3182 48.0121 24.3182C47.4884 24.3182 47.0575 24.4541 46.7195 24.7259C46.3814 24.9976 46.1312 25.3539 45.9688 25.7947C45.8063 26.2356 45.7251 26.7112 45.7251 27.2216C45.7251 27.732 45.8063 28.206 45.9688 28.6435C46.1312 29.081 46.3814 29.4339 46.7195 29.7024C47.0575 29.9709 47.4884 30.1051 48.0121 30.1051ZM53.2633 31V23.3636H54.3968V24.517H54.4764C54.6123 24.1392 54.8625 23.8326 55.2271 23.5973C55.5917 23.362 56.0043 23.2443 56.465 23.2443C56.6771 23.2443 56.8627 23.2692 57.0218 23.3189C57.1809 23.3686 57.3201 23.4366 57.4395 23.5227L57.0417 24.517C56.9589 24.474 56.8611 24.4408 56.7484 24.4176C56.639 24.3911 56.5114 24.3778 56.3656 24.3778C55.9944 24.3778 55.6629 24.4557 55.3713 24.6115C55.0829 24.7673 54.8542 24.9794 54.6852 25.2479C54.5195 25.5163 54.4366 25.8229 54.4366 26.1676V31H53.2633ZM58.6364 31V23.3636H59.7699V24.517H59.8494C59.9853 24.1392 60.2356 23.8326 60.6001 23.5973C60.9647 23.362 61.3774 23.2443 61.8381 23.2443C62.0502 23.2443 62.2358 23.2692 62.3949 23.3189C62.554 23.3686 62.6932 23.4366 62.8125 23.5227L62.4148 24.517C62.3319 24.474 62.2341 24.4408 62.1214 24.4176C62.0121 24.3911 61.8845 24.3778 61.7386 24.3778C61.3674 24.3778 61.036 24.4557 60.7443 24.6115C60.456 24.7673 60.2273 24.9794 60.0582 25.2479C59.8925 25.5163 59.8097 25.8229 59.8097 26.1676V31H58.6364ZM66.9787 31.1591C66.2429 31.1591 65.6082 30.9967 65.0746 30.6719C64.5443 30.3438 64.1349 29.8864 63.8466 29.2997C63.5616 28.7098 63.419 28.0237 63.419 27.2415C63.419 26.4593 63.5616 25.7699 63.8466 25.1733C64.1349 24.5734 64.536 24.1061 65.0497 23.7713C65.5668 23.4332 66.17 23.2642 66.8594 23.2642C67.2571 23.2642 67.6499 23.3305 68.0376 23.4631C68.4254 23.5956 68.7784 23.8111 69.0966 24.1094C69.4148 24.4044 69.6683 24.7955 69.8572 25.2827C70.0462 25.7699 70.1406 26.3698 70.1406 27.0824V27.5795H64.2543V26.5653H68.9474C68.9474 26.1345 68.8613 25.75 68.6889 25.4119C68.5199 25.0739 68.2779 24.8071 67.9631 24.6115C67.6515 24.416 67.2836 24.3182 66.8594 24.3182C66.392 24.3182 65.9877 24.4342 65.6463 24.6662C65.3082 24.8949 65.0481 25.1932 64.8658 25.5611C64.6835 25.929 64.5923 26.3234 64.5923 26.7443V27.4205C64.5923 27.9972 64.6918 28.486 64.8906 28.8871C65.0928 29.2848 65.3729 29.5881 65.7308 29.7969C66.0888 30.0024 66.5047 30.1051 66.9787 30.1051C67.2869 30.1051 67.5653 30.062 67.8139 29.9759C68.0658 29.8864 68.2829 29.7538 68.4652 29.5781C68.6475 29.3991 68.7884 29.1771 68.8878 28.9119L70.0213 29.2301C69.902 29.6146 69.7015 29.9527 69.4197 30.2443C69.138 30.5327 68.79 30.758 68.3757 30.9205C67.9614 31.0795 67.4957 31.1591 66.9787 31.1591ZM75.0277 31.1591C74.3383 31.1591 73.7334 30.995 73.2131 30.6669C72.696 30.3388 72.2917 29.8797 72 29.2898C71.7116 28.6998 71.5675 28.0104 71.5675 27.2216C71.5675 26.4261 71.7116 25.7318 72 25.1385C72.2917 24.5452 72.696 24.0845 73.2131 23.7564C73.7334 23.4283 74.3383 23.2642 75.0277 23.2642C75.7171 23.2642 76.3203 23.4283 76.8374 23.7564C77.3577 24.0845 77.7621 24.5452 78.0504 25.1385C78.3421 25.7318 78.4879 26.4261 78.4879 27.2216C78.4879 28.0104 78.3421 28.6998 78.0504 29.2898C77.7621 29.8797 77.3577 30.3388 76.8374 30.6669C76.3203 30.995 75.7171 31.1591 75.0277 31.1591ZM75.0277 30.1051C75.5514 30.1051 75.9822 29.9709 76.3203 29.7024C76.6584 29.4339 76.9086 29.081 77.071 28.6435C77.2334 28.206 77.3146 27.732 77.3146 27.2216C77.3146 26.7112 77.2334 26.2356 77.071 25.7947C76.9086 25.3539 76.6584 24.9976 76.3203 24.7259C75.9822 24.4541 75.5514 24.3182 75.0277 24.3182C74.504 24.3182 74.0732 24.4541 73.7351 24.7259C73.397 24.9976 73.1468 25.3539 72.9844 25.7947C72.822 26.2356 72.7408 26.7112 72.7408 27.2216C72.7408 27.732 72.822 28.206 72.9844 28.6435C73.1468 29.081 73.397 29.4339 73.7351 29.7024C74.0732 29.9709 74.504 30.1051 75.0277 30.1051ZM87.4181 31.1591C86.6824 31.1591 86.0476 30.9967 85.514 30.6719C84.9837 30.3438 84.5744 29.8864 84.286 29.2997C84.001 28.7098 83.8585 28.0237 83.8585 27.2415C83.8585 26.4593 84.001 25.7699 84.286 25.1733C84.5744 24.5734 84.9754 24.1061 85.4892 23.7713C86.0062 23.4332 86.6094 23.2642 87.2988 23.2642C87.6966 23.2642 88.0893 23.3305 88.4771 23.4631C88.8649 23.5956 89.2179 23.8111 89.536 24.1094C89.8542 24.4044 90.1078 24.7955 90.2967 25.2827C90.4856 25.7699 90.5801 26.3698 90.5801 27.0824V27.5795H84.6937V26.5653H89.3869C89.3869 26.1345 89.3007 25.75 89.1284 25.4119C88.9593 25.0739 88.7174 24.8071 88.4025 24.6115C88.091 24.416 87.7231 24.3182 87.2988 24.3182C86.8315 24.3182 86.4271 24.4342 86.0858 24.6662C85.7477 24.8949 85.4875 25.1932 85.3052 25.5611C85.1229 25.929 85.0318 26.3234 85.0318 26.7443V27.4205C85.0318 27.9972 85.1312 28.486 85.3301 28.8871C85.5323 29.2848 85.8123 29.5881 86.1703 29.7969C86.5282 30.0024 86.9442 30.1051 87.4181 30.1051C87.7264 30.1051 88.0048 30.062 88.2534 29.9759C88.5053 29.8864 88.7224 29.7538 88.9047 29.5781C89.0869 29.3991 89.2278 29.1771 89.3272 28.9119L90.4608 29.2301C90.3414 29.6146 90.1409 29.9527 89.8592 30.2443C89.5775 30.5327 89.2295 30.758 88.8152 30.9205C88.4009 31.0795 87.9352 31.1591 87.4181 31.1591ZM92.3649 20.8182H93.5382V29.0114C93.5382 29.3826 93.5796 29.6428 93.6625 29.7919C93.7453 29.9411 93.916 30.0123 94.1745 30.0057C94.3137 29.9991 94.4165 29.9891 94.4828 29.9759C94.5524 29.9593 94.6154 29.9427 94.6717 29.9261L94.9103 30.9403C94.8076 30.9702 94.6783 30.9967 94.5225 31.0199C94.3668 31.0464 94.2044 31.0597 94.0353 31.0597C93.4785 31.0597 93.0609 30.9072 92.7825 30.6023C92.5041 30.2973 92.3649 29.8731 92.3649 29.3295V20.8182ZM99.1896 31.1591C98.4538 31.1591 97.8191 30.9967 97.2855 30.6719C96.7552 30.3438 96.3459 29.8864 96.0575 29.2997C95.7725 28.7098 95.63 28.0237 95.63 27.2415C95.63 26.4593 95.7725 25.7699 96.0575 25.1733C96.3459 24.5734 96.7469 24.1061 97.2607 23.7713C97.7777 23.4332 98.3809 23.2642 99.0703 23.2642C99.468 23.2642 99.8608 23.3305 100.249 23.4631C100.636 23.5956 100.989 23.8111 101.308 24.1094C101.626 24.4044 101.879 24.7955 102.068 25.2827C102.257 25.7699 102.352 26.3698 102.352 27.0824V27.5795H96.4652V26.5653H101.158C101.158 26.1345 101.072 25.75 100.9 25.4119C100.731 25.0739 100.489 24.8071 100.174 24.6115C99.8625 24.416 99.4946 24.3182 99.0703 24.3182C98.603 24.3182 98.1986 24.4342 97.8572 24.6662C97.5192 24.8949 97.259 25.1932 97.0767 25.5611C96.8944 25.929 96.8033 26.3234 96.8033 26.7443V27.4205C96.8033 27.9972 96.9027 28.486 97.1016 28.8871C97.3037 29.2848 97.5838 29.5881 97.9418 29.7969C98.2997 30.0024 98.7157 30.1051 99.1896 30.1051C99.4979 30.1051 99.7763 30.062 100.025 29.9759C100.277 29.8864 100.494 29.7538 100.676 29.5781C100.858 29.3991 100.999 29.1771 101.099 28.9119L102.232 29.2301C102.113 29.6146 101.912 29.9527 101.631 30.2443C101.349 30.5327 101.001 30.758 100.587 30.9205C100.172 31.0795 99.7067 31.1591 99.1896 31.1591ZM107.239 31.1591C106.523 31.1591 105.906 30.9901 105.389 30.652C104.872 30.3139 104.474 29.8482 104.196 29.255C103.918 28.6617 103.778 27.9839 103.778 27.2216C103.778 26.446 103.921 25.7616 104.206 25.1683C104.494 24.5717 104.895 24.1061 105.409 23.7713C105.926 23.4332 106.529 23.2642 107.219 23.2642C107.756 23.2642 108.24 23.3636 108.67 23.5625C109.101 23.7614 109.454 24.0398 109.729 24.3977C110.004 24.7557 110.175 25.1733 110.241 25.6506H109.068C108.979 25.3026 108.78 24.9943 108.472 24.7259C108.167 24.4541 107.756 24.3182 107.239 24.3182C106.781 24.3182 106.38 24.4375 106.036 24.6761C105.694 24.9115 105.427 25.2446 105.235 25.6754C105.046 26.103 104.952 26.6051 104.952 27.1818C104.952 27.7718 105.045 28.2855 105.23 28.723C105.419 29.1605 105.684 29.5002 106.026 29.7422C106.37 29.9841 106.775 30.1051 107.239 30.1051C107.544 30.1051 107.82 30.0521 108.069 29.946C108.317 29.84 108.528 29.6875 108.7 29.4886C108.873 29.2898 108.995 29.0511 109.068 28.7727H110.241C110.175 29.2235 110.011 29.6295 109.749 29.9908C109.491 30.3487 109.148 30.6338 108.72 30.8459C108.296 31.0547 107.802 31.1591 107.239 31.1591ZM115.278 23.3636V24.358H111.32V23.3636H115.278ZM112.474 21.5341H113.647V28.8125C113.647 29.1439 113.695 29.3925 113.791 29.5582C113.891 29.7206 114.017 29.83 114.169 29.8864C114.325 29.9394 114.489 29.9659 114.661 29.9659C114.79 29.9659 114.897 29.9593 114.979 29.946C115.062 29.9295 115.129 29.9162 115.178 29.9062L115.417 30.9602C115.337 30.9901 115.226 31.0199 115.084 31.0497C114.941 31.0829 114.761 31.0994 114.542 31.0994C114.21 31.0994 113.886 31.0282 113.567 30.8857C113.253 30.7431 112.991 30.526 112.782 30.2344C112.576 29.9427 112.474 29.5748 112.474 29.1307V21.5341ZM117.043 31V23.3636H118.176V24.517H118.256C118.392 24.1392 118.642 23.8326 119.006 23.5973C119.371 23.362 119.784 23.2443 120.244 23.2443C120.456 23.2443 120.642 23.2692 120.801 23.3189C120.96 23.3686 121.099 23.4366 121.219 23.5227L120.821 24.517C120.738 24.474 120.64 24.4408 120.528 24.4176C120.418 24.3911 120.291 24.3778 120.145 24.3778C119.774 24.3778 119.442 24.4557 119.151 24.6115C118.862 24.7673 118.634 24.9794 118.464 25.2479C118.299 25.5163 118.216 25.8229 118.216 26.1676V31H117.043ZM125.286 31.1591C124.596 31.1591 123.991 30.995 123.471 30.6669C122.954 30.3388 122.549 29.8797 122.258 29.2898C121.969 28.6998 121.825 28.0104 121.825 27.2216C121.825 26.4261 121.969 25.7318 122.258 25.1385C122.549 24.5452 122.954 24.0845 123.471 23.7564C123.991 23.4283 124.596 23.2642 125.286 23.2642C125.975 23.2642 126.578 23.4283 127.095 23.7564C127.616 24.0845 128.02 24.5452 128.308 25.1385C128.6 25.7318 128.746 26.4261 128.746 27.2216C128.746 28.0104 128.6 28.6998 128.308 29.2898C128.02 29.8797 127.616 30.3388 127.095 30.6669C126.578 30.995 125.975 31.1591 125.286 31.1591ZM125.286 30.1051C125.809 30.1051 126.24 29.9709 126.578 29.7024C126.916 29.4339 127.166 29.081 127.329 28.6435C127.491 28.206 127.572 27.732 127.572 27.2216C127.572 26.7112 127.491 26.2356 127.329 25.7947C127.166 25.3539 126.916 24.9976 126.578 24.7259C126.24 24.4541 125.809 24.3182 125.286 24.3182C124.762 24.3182 124.331 24.4541 123.993 24.7259C123.655 24.9976 123.405 25.3539 123.242 25.7947C123.08 26.2356 122.999 26.7112 122.999 27.2216C122.999 27.732 123.08 28.206 123.242 28.6435C123.405 29.081 123.655 29.4339 123.993 29.7024C124.331 29.9709 124.762 30.1051 125.286 30.1051ZM124.749 22.3295L125.962 20.0227H127.334L125.783 22.3295H124.749ZM131.71 26.4062V31H130.537V23.3636H131.67V24.5568H131.77C131.949 24.169 132.22 23.8575 132.585 23.6222C132.95 23.3835 133.42 23.2642 133.997 23.2642C134.514 23.2642 134.966 23.3703 135.354 23.5824C135.742 23.7912 136.044 24.1094 136.259 24.5369C136.474 24.9612 136.582 25.4981 136.582 26.1477V31H135.409V26.2273C135.409 25.6274 135.253 25.16 134.942 24.8253C134.63 24.4872 134.202 24.3182 133.659 24.3182C133.284 24.3182 132.95 24.3994 132.655 24.5618C132.363 24.7242 132.133 24.9612 131.964 25.2727C131.795 25.5843 131.71 25.9621 131.71 26.4062ZM138.726 31V23.3636H139.9V31H138.726ZM139.323 22.0909C139.094 22.0909 138.897 22.013 138.731 21.8572C138.569 21.7015 138.488 21.5142 138.488 21.2955C138.488 21.0767 138.569 20.8894 138.731 20.7337C138.897 20.5779 139.094 20.5 139.323 20.5C139.551 20.5 139.747 20.5779 139.909 20.7337C140.075 20.8894 140.158 21.0767 140.158 21.2955C140.158 21.5142 140.075 21.7015 139.909 21.8572C139.747 22.013 139.551 22.0909 139.323 22.0909ZM145.151 31.1591C144.435 31.1591 143.818 30.9901 143.301 30.652C142.784 30.3139 142.387 29.8482 142.108 29.255C141.83 28.6617 141.691 27.9839 141.691 27.2216C141.691 26.446 141.833 25.7616 142.118 25.1683C142.406 24.5717 142.807 24.1061 143.321 23.7713C143.838 23.4332 144.441 23.2642 145.131 23.2642C145.668 23.2642 146.152 23.3636 146.583 23.5625C147.013 23.7614 147.366 24.0398 147.642 24.3977C147.917 24.7557 148.087 25.1733 148.154 25.6506H146.98C146.891 25.3026 146.692 24.9943 146.384 24.7259C146.079 24.4541 145.668 24.3182 145.151 24.3182C144.693 24.3182 144.292 24.4375 143.948 24.6761C143.606 24.9115 143.339 25.2446 143.147 25.6754C142.958 26.103 142.864 26.6051 142.864 27.1818C142.864 27.7718 142.957 28.2855 143.142 28.723C143.331 29.1605 143.596 29.5002 143.938 29.7422C144.282 29.9841 144.687 30.1051 145.151 30.1051C145.456 30.1051 145.732 30.0521 145.981 29.946C146.23 29.84 146.44 29.6875 146.612 29.4886C146.785 29.2898 146.907 29.0511 146.98 28.7727H148.154C148.087 29.2235 147.923 29.6295 147.661 29.9908C147.403 30.3487 147.06 30.6338 146.632 30.8459C146.208 31.0547 145.714 31.1591 145.151 31.1591ZM152.971 31.1591C152.282 31.1591 151.677 30.995 151.156 30.6669C150.639 30.3388 150.235 29.8797 149.943 29.2898C149.655 28.6998 149.511 28.0104 149.511 27.2216C149.511 26.4261 149.655 25.7318 149.943 25.1385C150.235 24.5452 150.639 24.0845 151.156 23.7564C151.677 23.4283 152.282 23.2642 152.971 23.2642C153.66 23.2642 154.264 23.4283 154.781 23.7564C155.301 24.0845 155.705 24.5452 155.994 25.1385C156.285 25.7318 156.431 26.4261 156.431 27.2216C156.431 28.0104 156.285 28.6998 155.994 29.2898C155.705 29.8797 155.301 30.3388 154.781 30.6669C154.264 30.995 153.66 31.1591 152.971 31.1591ZM152.971 30.1051C153.495 30.1051 153.926 29.9709 154.264 29.7024C154.602 29.4339 154.852 29.081 155.014 28.6435C155.177 28.206 155.258 27.732 155.258 27.2216C155.258 26.7112 155.177 26.2356 155.014 25.7947C154.852 25.3539 154.602 24.9976 154.264 24.7259C153.926 24.4541 153.495 24.3182 152.971 24.3182C152.447 24.3182 152.017 24.4541 151.678 24.7259C151.34 24.9976 151.09 25.3539 150.928 25.7947C150.765 26.2356 150.684 26.7112 150.684 27.2216C150.684 27.732 150.765 28.206 150.928 28.6435C151.09 29.081 151.34 29.4339 151.678 29.7024C152.017 29.9709 152.447 30.1051 152.971 30.1051Z" fill="#474A57"/>
</svg>
